…
Run the app like this:
```{r eval=FALSE}
shiny_roomba()
```
## What's not
Of course, in two days we weren’t able to build a magical one-size-fits-all solution to every API response data headache. Right now, the main barrier to usability is that both the `roomba()` function and `shiny_roomba()` app only work on sub-list items of the same length and same data type stored at the same depth. To illustrate on the `twitter_data`:
```{r}
#This doesn't work because "user" has data of different types and lengths
roomba(twitter_data, c("user"))
# A tibble: 1,007 x 1
   user      
   <list>    
 1 <int [1]> 
 2 <chr [1]> 
 3 <chr [1]> 
 4 <chr [1]> 
 5 <chr [1]> 
 6 <chr [1]> 
 7 <chr [1]> 
 8 <list [2]>
 9 <lgl [1]> 
10 <int [1]> 
# ... with 997 more rows
…
