Tidy up nested list hairballs • roomba
…
super_data %>%
  roomba(cols = c("name", "super_power", "more_nested_stuff"), keep = any)
#> # A tibble: 5 x 3
#>   name               super_power            more_nested_stuff
#>   <chr>              <chr>                              <int>
#> 1 Laura DeCicco      fixing merge conflicts                NA
#> 2 Amanda Dobbyn      flight                                 4
#> 3 Jim Hester         <NA>                                  NA
#> 4 Christine Stawitz  invisibility                           5
#> 5 Isabella Velasquez teleportation                         NA

Let’s try with a real-world Twitter example (see package data to use this data).

roomba(twitter_data, c("created_at", "name"))
#> # A tibble: 24 x 2
#>    name                 created_at                    
#>    <chr>                <chr>                         
#>  1 Code for America     Mon Aug 10 18:59:29 +0000 2009
#>  2 Ben Lorica 罗瑞卡    Mon Dec 22 22:06:18 +0000 2008
#>  3 Dan Sholler          Thu Apr 03 20:09:24 +0000 2014
#>  4 Code for America     Mon Aug 10 18:59:29 +0000 2009
#>  5 FiveThirtyEight      Tue Jan 21 21:39:32 +0000 2014
#>  6 Digital Impact       Wed Oct 07 21:10:53 +0000 2009
#>  7 Drew Williams        Thu Aug 07 18:41:29 +0000 2014
#>  8 joe                  Fri May 29 13:25:25 +0000 2009
#>  9 Data Analysts 4 Good Wed May 07 16:55:33 +0000 2014
#> 10 Ryan Frederick       Sun Mar 01 19:06:53 +0000 2009
#> # ... with 14 more rows
…
